…
mac_clusters
```

    ## # A tibble: 481 × 7
    ##    country_name supra_reg sub_reg fishing_tech vessel_length n_rows
    ##    <chr>        <chr>     <chr>   <chr>        <chr>          <int>
    ##  1 Belgium      NAO       27.4.b  DTS          VL2440             1
    ##  2 Belgium      NAO       27.4.b  TBB          VL2440             1
    ##  3 Belgium      NAO       27.4.c  DTS          VL2440             1
    ##  4 Belgium      NAO       27.4.c  TBB          VL1824             1
    ##  5 Belgium      NAO       27.4.c  TBB          VL2440             1
    ##  6 Belgium      NAO       27.7.d  DTS          VL2440             1
    ##  7 Belgium      NAO       27.7.d  TBB          VL2440             1
    ##  8 Belgium      NAO       27.7.e  DTS          VL2440             1
    ##  9 Belgium      NAO       27.7.f  DTS          VL2440             1
    ## 10 Belgium      NAO       27.7.g  TBB          VL2440             1
    ## # ℹ 471 more rows
    ## # ℹ 1 more variable: live_weight_sum <dbl>
…
- Count the number of subregions where the stock is exploited

``` r
mac_clusters %>%
  distinct(sub_reg)
```

    ## # A tibble: 35 × 1
    ##    sub_reg  
    ##    <chr>    
    ##  1 27.4.b   
    ##  2 27.4.c   
    ##  3 27.7.d   
    ##  4 27.7.e   
    ##  5 27.7.f   
    ##  6 27.7.g   
    ##  7 27.3.a.20
    ##  8 27.3.a.21
    ##  9 27.3.b.23
    ## 10 27.3.c.22
    ## # ℹ 25 more rows
…
#### Clusters of Top 5 countries

- With subregion

``` r
mac_clusters_top5 <- mac_clusters %>%
  semi_join(top5_mac, by = "country_name") %>% # filter to top 5
  arrange(country_name, supra_reg, sub_reg, fishing_tech, vessel_length)
mac_clusters_top5
```

    ## # A tibble: 227 × 7
    ##    country_name supra_reg sub_reg   fishing_tech vessel_length n_rows
    ##    <chr>        <chr>     <chr>     <chr>        <chr>          <int>
    ##  1 Denmark      NAO       27.3.a.20 DFN          VL0010             1
    ##  2 Denmark      NAO       27.3.a.20 DFN          VL1012             1
    ##  3 Denmark      NAO       27.3.a.20 DFN          VL1218             1
    ##  4 Denmark      NAO       27.3.a.20 DFN          VL1824             1
    ##  5 Denmark      NAO       27.3.a.20 DTS          VL0010             1
    ##  6 Denmark      NAO       27.3.a.20 DTS          VL1012             1
    ##  7 Denmark      NAO       27.3.a.20 DTS          VL1218             1
    ##  8 Denmark      NAO       27.3.a.20 DTS          VL1824             1
    ##  9 Denmark      NAO       27.3.a.20 DTS          VL2440             1
    ## 10 Denmark      NAO       27.3.a.20 TBB          VL1218             1
    ## # ℹ 217 more rows
    ## # ℹ 1 more variable: live_weight_sum <dbl>

- Without subregion

``` r
mac_clusters_top5 %>%
  group_by(country_name, supra_reg, fishing_tech, vessel_length) %>%  # <- sub_reg removed
  summarise(
    n_rows = sum(n_rows),
    live_weight_sum = sum(live_weight_sum, na.rm = TRUE),
    .groups = "drop"
  ) %>%
  arrange(country_name, supra_reg,fishing_tech, vessel_length)
```

    ## # A tibble: 84 × 6
    ##    country_name supra_reg fishing_tech vessel_length n_rows live_weight_sum
    ##    <chr>        <chr>     <chr>        <chr>          <int>           <dbl>
    ##  1 Denmark      NAO       DFN          VL0008             2            3508
    ##  2 Denmark      NAO       DFN          VL0010             3           11877
    ##  3 Denmark      NAO       DFN          VL0812             4            8866
    ##  4 Denmark      NAO       DFN          VL1012             3            1237
    ##  5 Denmark      NAO       DFN          VL1218             2             419
    ##  6 Denmark      NAO       DFN          VL1824             3             486
    ##  7 Denmark      NAO       DRB          VL0010             1               7
    ##  8 Denmark      NAO       DTS          VL0010             2              79
    ##  9 Denmark      NAO       DTS          VL0812             2              14
    ## 10 Denmark      NAO       DTS          VL1012             4             851
    ## # ℹ 74 more rows

``` r
mac_clusters_top5
```

    ## # A tibble: 227 × 7
    ##    country_name supra_reg sub_reg   fishing_tech vessel_length n_rows
    ##    <chr>        <chr>     <chr>     <chr>        <chr>          <int>
    ##  1 Denmark      NAO       27.3.a.20 DFN          VL0010             1
    ##  2 Denmark      NAO       27.3.a.20 DFN          VL1012             1
    ##  3 Denmark      NAO       27.3.a.20 DFN          VL1218             1
    ##  4 Denmark      NAO       27.3.a.20 DFN          VL1824             1
    ##  5 Denmark      NAO       27.3.a.20 DTS          VL0010             1
    ##  6 Denmark      NAO       27.3.a.20 DTS          VL1012             1
    ##  7 Denmark      NAO       27.3.a.20 DTS          VL1218             1
    ##  8 Denmark      NAO       27.3.a.20 DTS          VL1824             1
    ##  9 Denmark      NAO       27.3.a.20 DTS          VL2440             1
    ## 10 Denmark      NAO       27.3.a.20 TBB          VL1218             1
    ## # ℹ 217 more rows
    ## # ℹ 1 more variable: live_weight_sum <dbl>
…
``` r
mac_clusters %>%
filter(str_detect(sub_reg, "^27\\.(5|6|7|8)")) %>%
  group_by(country_name, supra_reg, fishing_tech, vessel_length) %>%
  summarise(
    n_rows = n(),
    live_weight_sum = sum(live_weight_sum, na.rm = TRUE), 
    .groups = "drop"
  ) %>%
  arrange(country_name, supra_reg, fishing_tech, vessel_length)
```

    ## # A tibble: 92 × 6
    ##    country_name supra_reg fishing_tech vessel_length n_rows live_weight_sum
    ##    <chr>        <chr>     <chr>        <chr>          <int>           <dbl>
    ##  1 Belgium      NAO       DTS          VL2440             3           9549.
    ##  2 Belgium      NAO       TBB          VL2440             2           1966.
    ##  3 Denmark      NAO       TM           VL40XX             5        8453094.
    ##  4 France       NAO       DFN          VL0010             5          72432.
    ##  5 France       NAO       DFN          VL1012             7          42762.
    ##  6 France       NAO       DFN          VL1218             5          12417.
    ##  7 France       NAO       DFN          VL1824             3            945.
    ##  8 France       NAO       DFN          VL2440             3          12405.
    ##  9 France       NAO       DRB          VL0010             3           1833.
    ## 10 France       NAO       DRB          VL1012             3          63847.
    ## # ℹ 82 more rows
…
``` r
mac_clusters %>%
filter(str_detect(sub_reg, "^27\\.(8c|9|10)")|
       str_detect(sub_reg, "^34\\.(1.1)")) %>%
  group_by(country_name, supra_reg, fishing_tech, vessel_length) %>%
  summarise(
    n_rows = n(),
    live_weight_sum = sum(live_weight_sum, na.rm = TRUE), 
    .groups = "drop"
  ) %>%
  arrange(country_name, supra_reg, fishing_tech, vessel_length)
```

    ## # A tibble: 48 × 6
    ##    country_name supra_reg fishing_tech vessel_length n_rows live_weight_sum
    ##    <chr>        <chr>     <chr>        <chr>          <int>           <dbl>
    ##  1 France       NAO       FPO          VL0010             1            45.6
    ##  2 Portugal     NAO       DFN          VL0010             1          2777  
    ##  3 Portugal     NAO       DFN          VL1012             1           839  
    ##  4 Portugal     NAO       DFN          VL1218             1          5315  
    ##  5 Portugal     NAO       DFN          VL1824             1          5404  
    ##  6 Portugal     NAO       DTS          VL0010             1          2469  
    ##  7 Portugal     NAO       DTS          VL1012             1          8049  
    ##  8 Portugal     NAO       DTS          VL1218             1          1911  
    ##  9 Portugal     NAO       DTS          VL2440             1        506461  
    ## 10 Portugal     NAO       FPO          VL0010             1            13  
    ## # ℹ 38 more rows
…
hke_clusters
```

    ## # A tibble: 457 × 7
    ##    country_name supra_reg sub_reg fishing_tech vessel_length n_rows
    ##    <chr>        <chr>     <chr>   <chr>        <chr>          <int>
    ##  1 Belgium      NAO       27.4.a  DTS          VL2440             1
    ##  2 Belgium      NAO       27.4.b  DTS          VL2440             1
    ##  3 Belgium      NAO       27.4.b  TBB          VL1824             1
    ##  4 Belgium      NAO       27.4.b  TBB          VL2440             1
    ##  5 Belgium      NAO       27.4.c  DTS          VL2440             1
    ##  6 Belgium      NAO       27.4.c  TBB          VL2440             1
    ##  7 Belgium      NAO       27.7.a  DTS          VL2440             1
    ##  8 Belgium      NAO       27.7.a  TBB          VL2440             1
    ##  9 Belgium      NAO       27.7.d  DTS          VL2440             1
    ## 10 Belgium      NAO       27.7.d  TBB          VL2440             1
    ## # ℹ 447 more rows
    ## # ℹ 1 more variable: live_weight_sum <dbl>
…
- Count the number of subregions where the stock is exploited

``` r
hke_clusters %>%
  distinct(sub_reg)
```

    ## # A tibble: 31 × 1
    ##    sub_reg
    ##    <chr>  
    ##  1 27.4.a 
    ##  2 27.4.b 
    ##  3 27.4.c 
    ##  4 27.7.a 
    ##  5 27.7.d 
    ##  6 27.7.e 
    ##  7 27.7.f 
    ##  8 27.7.g 
    ##  9 27.7.h 
    ## 10 27.7.j 
    ## # ℹ 21 more rows
…
#### Clusters of Top 5 countries

- With subregion

``` r
hke_clusters_top5 <- hke_clusters %>%
  semi_join(top5_hke, by = "country_name") %>% # filter to top 5
  arrange(country_name, supra_reg, sub_reg, fishing_tech, vessel_length)
hke_clusters_top5
```

    ## # A tibble: 389 × 7
    ##    country_name supra_reg sub_reg   fishing_tech vessel_length n_rows
    ##    <chr>        <chr>     <chr>     <chr>        <chr>          <int>
    ##  1 Denmark      NAO       27.3.a.20 DFN          VL0010             1
    ##  2 Denmark      NAO       27.3.a.20 DFN          VL1012             1
    ##  3 Denmark      NAO       27.3.a.20 DFN          VL1218             1
    ##  4 Denmark      NAO       27.3.a.20 DFN          VL1824             1
    ##  5 Denmark      NAO       27.3.a.20 DRB          VL0010             1
    ##  6 Denmark      NAO       27.3.a.20 DTS          VL0010             1
    ##  7 Denmark      NAO       27.3.a.20 DTS          VL0812             1
    ##  8 Denmark      NAO       27.3.a.20 DTS          VL1012             1
    ##  9 Denmark      NAO       27.3.a.20 DTS          VL1218             1
    ## 10 Denmark      NAO       27.3.a.20 DTS          VL1824             1
    ## # ℹ 379 more rows
    ## # ℹ 1 more variable: live_weight_sum <dbl>

- Without subregion

``` r
hke_clusters_top5 %>%
  group_by(country_name, supra_reg, fishing_tech, vessel_length) %>%  # <- sub_reg removed
  summarise(
    n_rows = sum(n_rows),
    live_weight_sum = sum(live_weight_sum, na.rm = TRUE),
    .groups = "drop"
  ) %>%
  arrange(country_name, supra_reg,fishing_tech, vessel_length)
```

    ## # A tibble: 130 × 6
    ##    country_name supra_reg fishing_tech vessel_length n_rows live_weight_sum
    ##    <chr>        <chr>     <chr>        <chr>          <int>           <dbl>
    ##  1 Denmark      NAO       DFN          VL0010             3          26751 
    ##  2 Denmark      NAO       DFN          VL0812             2              4 
    ##  3 Denmark      NAO       DFN          VL1012             2          29434 
    ##  4 Denmark      NAO       DFN          VL1218             3         327091 
    ##  5 Denmark      NAO       DFN          VL1824             4         216460 
    ##  6 Denmark      NAO       DRB          VL0010             2             91 
    ##  7 Denmark      NAO       DTS          VL0010             3           1858 
    ##  8 Denmark      NAO       DTS          VL0812             2             55 
    ##  9 Denmark      NAO       DTS          VL1012             3           3451 
    ## 10 Denmark      NAO       DTS          VL1218             4         128270.
    ## # ℹ 120 more rows

``` r
hke_clusters_top5
```

    ## # A tibble: 389 × 7
    ##    country_name supra_reg sub_reg   fishing_tech vessel_length n_rows
    ##    <chr>        <chr>     <chr>     <chr>        <chr>          <int>
    ##  1 Denmark      NAO       27.3.a.20 DFN          VL0010             1
    ##  2 Denmark      NAO       27.3.a.20 DFN          VL1012             1
    ##  3 Denmark      NAO       27.3.a.20 DFN          VL1218             1
    ##  4 Denmark      NAO       27.3.a.20 DFN          VL1824             1
    ##  5 Denmark      NAO       27.3.a.20 DRB          VL0010             1
    ##  6 Denmark      NAO       27.3.a.20 DTS          VL0010             1
    ##  7 Denmark      NAO       27.3.a.20 DTS          VL0812             1
    ##  8 Denmark      NAO       27.3.a.20 DTS          VL1012             1
    ##  9 Denmark      NAO       27.3.a.20 DTS          VL1218             1
    ## 10 Denmark      NAO       27.3.a.20 DTS          VL1824             1
    ## # ℹ 379 more rows
    ## # ℹ 1 more variable: live_weight_sum <dbl>
…
jax_clusters
```

    ## # A tibble: 64 × 7
    ##    country_name supra_reg sub_reg fishing_tech vessel_length n_rows
    ##    <chr>        <chr>     <chr>   <chr>        <chr>          <int>
    ##  1 Belgium      NAO       27.4.b  DTS          VL2440             1
    ##  2 Belgium      NAO       27.4.c  DTS          VL2440             1
    ##  3 Belgium      NAO       27.4.c  TBB          VL1824             1
    ##  4 Belgium      NAO       27.4.c  TBB          VL2440             1
    ##  5 Belgium      NAO       27.7.d  DTS          VL2440             1
    ##  6 Belgium      NAO       27.7.d  TBB          VL1824             1
    ##  7 Belgium      NAO       27.7.d  TBB          VL2440             1
    ##  8 Belgium      NAO       27.7.e  TBB          VL2440             1
    ##  9 Belgium      NAO       27.7.f  DTS          VL2440             1
    ## 10 Belgium      NAO       27.7.f  TBB          VL2440             1
    ## # ℹ 54 more rows
    ## # ℹ 1 more variable: live_weight_sum <dbl>
…
#### Clusters of Top 5 countries

- With subregion

``` r
jax_clusters_top5 <- jax_clusters %>%
  semi_join(top5_jax, by = "country_name") %>% # filter to top 5
  arrange(country_name, supra_reg, sub_reg, fishing_tech, vessel_length)
hke_clusters_top5
```

    ## # A tibble: 389 × 7
    ##    country_name supra_reg sub_reg   fishing_tech vessel_length n_rows
    ##    <chr>        <chr>     <chr>     <chr>        <chr>          <int>
    ##  1 Denmark      NAO       27.3.a.20 DFN          VL0010             1
    ##  2 Denmark      NAO       27.3.a.20 DFN          VL1012             1
    ##  3 Denmark      NAO       27.3.a.20 DFN          VL1218             1
    ##  4 Denmark      NAO       27.3.a.20 DFN          VL1824             1
    ##  5 Denmark      NAO       27.3.a.20 DRB          VL0010             1
    ##  6 Denmark      NAO       27.3.a.20 DTS          VL0010             1
    ##  7 Denmark      NAO       27.3.a.20 DTS          VL0812             1
    ##  8 Denmark      NAO       27.3.a.20 DTS          VL1012             1
    ##  9 Denmark      NAO       27.3.a.20 DTS          VL1218             1
    ## 10 Denmark      NAO       27.3.a.20 DTS          VL1824             1
    ## # ℹ 379 more rows
    ## # ℹ 1 more variable: live_weight_sum <dbl>

- Without subregion

``` r
jax_clusters_top5 %>%
  group_by(country_name, supra_reg, fishing_tech, vessel_length) %>%  # <- sub_reg removed
  summarise(
    n_rows = sum(n_rows),
    live_weight_sum = sum(live_weight_sum, na.rm = TRUE),
    .groups = "drop"
  ) %>%
  arrange(country_name, supra_reg,fishing_tech, vessel_length)
```

    ## # A tibble: 25 × 6
    ##    country_name supra_reg fishing_tech vessel_length n_rows live_weight_sum
    ##    <chr>        <chr>     <chr>        <chr>          <int>           <dbl>
    ##  1 Denmark      NAO       DTS          VL2440             1             15 
    ##  2 Ireland      NAO       DFN          VL0010             1             69 
    ##  3 Ireland      NAO       DFN          VL1824             2            619.
    ##  4 Ireland      NAO       DTS          VL0010             1             98 
    ##  5 Ireland      NAO       DTS          VL1218             1            786.
    ##  6 Ireland      NAO       DTS          VL1824             3           1300.
    ##  7 Ireland      NAO       DTS          VL2440             2          16405 
    ##  8 Ireland      NAO       FPO          VL1218             1             62 
    ##  9 Ireland      NAO       TM           VL2440             5         440239 
    ## 10 Ireland      NAO       TM           VL40XX             3         703011 
    ## # ℹ 15 more rows

``` r
jax_clusters_top5
```

    ## # A tibble: 47 × 7
    ##    country_name supra_reg sub_reg fishing_tech vessel_length n_rows
    ##    <chr>        <chr>     <chr>   <chr>        <chr>          <int>
    ##  1 Denmark      NAO       27.4.c  DTS          VL2440             1
    ##  2 Ireland      NAO       27.6.a  DTS          VL2440             1
    ##  3 Ireland      NAO       27.6.a  TM           VL2440             1
    ##  4 Ireland      NAO       27.6.a  TM           VL40XX             1
    ##  5 Ireland      NAO       27.7.b  DTS          VL1824             1
    ##  6 Ireland      NAO       27.7.b  TM           VL2440             1
    ##  7 Ireland      NAO       27.7.b  TM           VL40XX             1
    ##  8 Ireland      NAO       27.7.g  DFN          VL1824             1
    ##  9 Ireland      NAO       27.7.g  DTS          VL1824             1
    ## 10 Ireland      NAO       27.7.g  TM           VL2440             1
    ## # ℹ 37 more rows
    ## # ℹ 1 more variable: live_weight_sum <dbl>
…
alb_clusters
```

    ## # A tibble: 220 × 7
    ##    country_name supra_reg sub_reg fishing_tech vessel_length n_rows
    ##    <chr>        <chr>     <chr>   <chr>        <chr>          <int>
    ##  1 France       NAO       27.7.e  HOK          VL0010             1
    ##  2 France       NAO       27.7.h  DTS          VL1218             1
    ##  3 France       NAO       27.7.h  DTS          VL1824             1
    ##  4 France       NAO       27.7.h  DTS          VL2440             1
    ##  5 France       NAO       27.7.h  MGP          VL1824             1
    ##  6 France       NAO       27.7.h  TM           VL1218             1
    ##  7 France       NAO       27.7.h  TM           VL1824             1
    ##  8 France       NAO       27.7.h  TM           VL2440             1
    ##  9 France       NAO       27.7.j  DTS          VL1218             1
    ## 10 France       NAO       27.7.j  DTS          VL1824             1
    ## # ℹ 210 more rows
    ## # ℹ 1 more variable: live_weight_sum <dbl>
…
- Count the number of subregions where the stock is exploited

``` r
alb_clusters %>%
  distinct(sub_reg)
```

    ## # A tibble: 21 × 1
    ##    sub_reg
    ##    <chr>  
    ##  1 27.7.e 
    ##  2 27.7.h 
    ##  3 27.7.j 
    ##  4 27.8.a 
    ##  5 27.8.b 
    ##  6 27.8.c 
    ##  7 27.8.d 
    ##  8 27.7.k 
    ##  9 27.10.a
    ## 10 27.9.a 
    ## # ℹ 11 more rows
…
